[
    {
        "symbol": "OHM",
        "address": "0x64aa3364f17a4d01c6f1751fd97c2bd3d7e7f1d5",
        "img":""
    },
    {
        "symbol": "DPX",
        "address": "0xeec2be5c91ae7f8a338e1e5f3b5de49d07afdc81",
        "img":""
    },
    {
        "symbol": "BTRFLY",
        "address": "0xc0d4ceb216b3ba9c3701b291766fdcba977cec3a",
        "img":""
    },
    {
        "symbol": "TEMPLE",
        "address": "0x470ebf5f030ed85fc1ed4c2d36b9dd02e77cf1b7",
        "img":""
    },
    {
        "symbol": "FXS",
        "address": "0x3432b6a60d23ca0dfca7761b7ab56459d9c964d0",
        "img":""
    },
    {
        "symbol": "RBN",
        "address": "0x6123b0049f904d730db3c36a31167d9d4121fa6b",
        "img":""
    },
    {
        "symbol": "TRIBE",
        "address": "0xc7283b66eb1eb5fb86327f08e1b5816b0720212b",
        "img":""
    },
    {
        "symbol": "TOKE",
        "address": "0x2e9d63788249371f1dfc918a52f8d799f4a38c94",
        "img":""
    },
    {
        "symbol": "COW",
        "address": "0xdef1ca1fb7fbcdc777520aa7f396b4e015f497ab",
        "img":""
    },
    {
        "symbol": "PREMIA",
        "address": "0x6399c842dd2be3de30bf99bc7d1bbf6fa3650e70",
        "img":""
    },
    {
        "symbol": "ALCX",
        "address": "0xdbdb4d16eda451d0503b854cf79d55697f90c8df",
        "img":""
    },
    {
        "symbol": "ANGLE",
        "address": "0x31429d1856ad1377a8a0079410b297e1a9e214c2",
        "img":""
    }

]